mOMOP to OMOP Vocabularies • amphora
…
In lieu of using Protege, mCode value set classification developed in the mOMOP package is converted to the OMOP Vocabulary structure, specifically the class hierarchy seen in the Concept Relationship table. This is achieved by creating:

1. Forward “Subsumes” relationships between the class and concept.

1. Inverse “Is a” relationships between the concept and class.

1. Concepts for each class in a Concept table.

MCODE_CLASS_HIERARCHY
#> # A tibble: 215,271 x 2
#>    class             concept                                                    
#>    <chr>             <chr>                                                      
#>  1 CANCER_BODY_LOCA… [V] [S] 4048384 Body structure [SNOMED 123037004] [Spec An…
#>  2 CANCER_BODY_LOCA… [V] [S] 4002852 Buccal embrasure [SNOMED 110326006] [Spec …
#>  3 CANCER_BODY_LOCA… [V] [S] 36717763 Skin structure of left lower eyelid [SNOM…
#>  4 CANCER_BODY_LOCA… [V] [S] 4230944 Adenofibrosis [SNOMED 89115006] [Observati…
#>  5 CANCER_BODY_LOCA… [V] [S] 42605189 Intervertebral foramen of eighteenth thor…
#>  6 CANCER_BODY_LOCA… [V] [S] 4097829 Transitional cell carcinoma [SNOMED 270900…
#>  7 CANCER_BODY_LOCA… [V] [S] 4265989 Structure of medial nuclei of hypothalamus…
#>  8 CANCER_BODY_LOCA… [V] [S] 4143459 Structure of subarachnoid space of brain […
#>  9 CANCER_BODY_LOCA… [V] [S] 4093877 Entire body of second thoracic vertebra [S…
#> 10 CANCER_BODY_LOCA… [V] [S] 4300995 Structure of suprarenal vein [SNOMED 77905…
#> # … with 215,261 more rows
…
